<?xml version="1.0" standalone="no"?>
<!DOCTYPE svg PUBLIC "-//W3C//DTD SVG 1.1//EN" "http://www.w3.org/Graphics/SVG/1.1/DTD/svg11.dtd" >
<svg xmlns="http://www.w3.org/2000/svg">
<metadata>Generated by IcoMoon</metadata>
<defs>
<font id="icomoon" horiz-adv-x="1024">
<font-face units-per-em="1024" ascent="960" descent="-64" />
<missing-glyph horiz-adv-x="1024" />
<glyph unicode="&#x20;" d="" horiz-adv-x="512" />
<glyph unicode="&#xe602;" d="M1024 448c0 282.77-229.23 512-512 512s-512-229.23-512-512 229.23-512 512-512 512 229.23 512 512zM96 448c0 229.75 186.25 416 416 416s416-186.25 416-416-186.25-416-416-416-416 186.25-416 416zM557.254 146.744l256 256.002c24.994 24.992 24.994 65.514 0 90.508s-65.516 24.994-90.51 0l-146.744-146.744v357.49c0 35.346-28.654 64-64 64s-64-28.654-64-64v-357.49l-146.744 146.746c-24.994 24.994-65.518 24.994-90.512 0-12.496-12.498-18.744-28.878-18.744-45.256s6.248-32.758 18.744-45.254l256-256.002c24.994-24.992 65.518-24.992 90.51 0z" />
<glyph unicode="&#xe604;" d="M768 163.84h-665.6v460.8h132.864c0 0 35.277 45.875 111.104 102.4h-295.168c-28.262 0-51.2-22.938-51.2-51.2v-563.2c0-28.314 22.938-51.2 51.2-51.2h768c28.314 0 51.2 22.886 51.2 51.2v191.795l-102.4-84.224v-56.371zM684.134 519.68v-181.76l339.866 266.291-339.866 255.949v-160.256c-412.774-0.051-412.774-408.064-412.774-408.064 116.838 191.898 188.723 227.84 412.774 227.84z" />
<glyph unicode="&#xe60a;" d="M297.984 302.165l60.416-60.416c39.339 39.339 93.653 63.744 153.6 63.744s114.261-24.405 153.6-63.744l60.416 60.416c-54.784 54.741-130.432 88.661-214.016 88.661s-159.232-33.92-214.016-88.661zM160.341 439.85l60.501-60.501c74.581 74.624 177.579 120.832 291.157 120.832s216.576-46.208 291.157-120.832l60.501 60.501c-89.984 89.984-214.315 145.664-351.659 145.664s-261.675-55.68-351.659-145.664zM512 780.16c-191.104 0-364.075-77.44-489.344-202.709l60.544-60.544c109.867 109.867 261.547 177.92 428.8 177.92s318.933-68.053 428.8-177.92l60.544 60.544c-125.269 125.269-298.24 202.709-489.344 202.709zM512 213.333c-35.328 0-64-28.672-64-64s28.672-64 64-64 64 28.672 64 64-28.672 64-64 64z" />
<glyph unicode="&#xe60b;" d="M640 813.412v-135.958c36.206-15.804 69.5-38.408 98.274-67.18 60.442-60.44 93.726-140.8 93.726-226.274s-33.286-165.834-93.726-226.274c-60.44-60.44-140.798-93.726-226.274-93.726s-165.834 33.286-226.274 93.726c-60.44 60.44-93.726 140.8-93.726 226.274s33.286 165.834 93.726 226.274c28.774 28.774 62.068 51.378 98.274 67.182v135.956c-185.048-55.080-320-226.472-320-429.412 0-247.424 200.578-448 448-448 247.424 0 448 200.576 448 448 0 202.94-134.95 374.332-320 429.412zM448 960h128v-512h-128z" />
<glyph unicode="&#xe612;" d="M736.448 817.312c-45.312 0-133.312-64-208-64-74.656 0-168 64-208 64-274.656 0-432-738.624-226.656-738.624 173.344 0 196.672 216 433.984 216 192 0 304.672-213.376 432.672-213.376 205.312 0 50.688 736-224 736zM304.416 401.312c-79.52 0-144 64.512-144 144 0 79.52 64.48 144 144 144s144-64.48 144-144c0-79.488-64.448-144-144-144zM686.432 481.312c-17.696 0-32 14.304-32 32s14.304 32 32 32 32-14.304 32-32-14.304-32-32-32zM784.448 385.312c-17.696 0-32 14.304-32 32s14.304 32 32 32 32-14.304 32-32-14.336-32-32-32zM784.448 577.312c-17.696 0-32 14.304-32 32s14.304 32 32 32 32-14.304 32-32-14.336-32-32-32zM880.448 481.312c-17.696 0-32 14.304-32 32s14.304 32 32 32 32-14.304 32-32-14.336-32-32-32zM304.416 625.312c-44.16 0-80-35.808-80-80s35.84-80 80-80c44.192 0 80 35.808 80 80s-35.808 80-80 80z" horiz-adv-x="1054" />
<glyph unicode="&#xe613;" d="M941.632 462.88c0 0 20.768 279.776-235.552 311.68-219.68 22.432-286.56-181.728-286.56-181.728s-66.144 63.616-155.904 11.648c-80.352-49.6-66.144-140.416-66.144-140.416s-178.432-34.688-178.432-216.576c3.968-181.664 193.728-183.488 193.728-183.488h299.232v192h-96l160 160 160-160h-96v-192h270.944c0 0 176.64-0.192 201.44 172.64 11.808 188.992-170.752 226.24-170.752 226.24z" horiz-adv-x="1120" />
<glyph unicode="&#xe614;" d="M784 64c8.8 0 16-7.168 16-16s0-48 0-48h-608c0 0 0 39.168 0 48s7.168 16 16 16h53.44c2.656 213.056 141.824 281.728 141.824 367.84 0 86.56-141.728 92.32-143.072 368.16h-52.192c-8.832 0-16 7.168-16 16s0 48 0 48h608c0 0 0-39.168 0-48s-7.2-16-16-16h-48.96c-1.344-275.84-143.072-281.6-143.072-368.16 0-86.112 139.2-154.784 141.856-367.84h50.176zM547.552 431.84c0 86.912 141.76 92.32 143.072 368.16h-386.016c1.312-275.84 143.072-281.248 143.072-368.16 0-83.552-139.232-153.984-141.856-367.84h24.256c5.696 18.976 24.608 41.792 57.28 58.688l42.464 21.664c26.688 13.792 42.688 23.104 48 27.904s11.328 15.552 18.048 32.256c7.072-16.672 13.12-27.424 18.24-32.256s20.928-14.112 47.488-27.904l42.24-21.664c32.48-16.896 51.328-39.712 56.928-58.688h28.608c-2.624 213.856-141.824 284.288-141.824 367.84zM514.24 478.816c-3.84-7.552-7.072-21.92-9.632-43.104-0.64-6.4-2.048-16.032-4.32-28.864-2.24 12.832-3.68 22.464-4.32 28.864-2.592 21.184-5.824 35.52-9.696 43.104-3.872 7.52-14.784 21.056-32.8 40.672l-40.032 43.776c-27.36 29.504-44.896 50.688-52.608 63.488 47.488-30.24 93.856-45.376 139.104-45.376s91.776 15.136 139.584 45.376c-8-12.8-25.6-33.984-52.768-63.488l-39.872-43.776c-17.92-19.616-28.832-33.152-32.64-40.672z" />
</font></defs></svg>